{
    "inputMessageMetadata": {},
    "outputMessageMetadata": {
        "messagePayload": {
            "connectorName": "#_custom_mule_metadata_type_#",
            "typeId": "Accounts_CSV"
        }
    },
    "id": "50bd5be0-70a4-4a9c-b0db-b7e31ea9a473",
    "version": "5.2.0.0"
}