{
    "inputMessageMetadata": {
        "messagePayload": {
            "connectorName": "#_custom_mule_metadata_type_#",
            "typeId": "United_JSON"
        }
    },
    "outputMessageMetadata": {},
    "id": "b63208f4-276d-42f8-810c-f000f8687d32",
    "version": "5.2.0.0"
}